budeeflup,english,description,classification,creator
apt,me,singular first person,pronoun,Rachel Wil Sha Singh
eis,you,singular second person,pronoun,Rachel Wil Sha Singh
de,"they, it",singular third person,pronoun,Rachel Wil Sha Singh
aptex,we (inclusive),plural first person,pronoun,
aptex nobeis,we (exclusive),plural first person,pronoun,
,and,,,
,or,,,
nob,not,,,Chris Mason/Rachel Wil Sha Singh
-x,"plural marker suffix, if word ends in vowel. To be pronounced like s, but you put the tip of your tongue on the roof of your mouth and force the air around the sides of it, through your molars",plural suffix,,Chris Mason
-ex,"plural marker suffix, if word ends in consonant. To be pronounced like s, but you put the tip of your tongue on the roof of your mouth and force the air around the sides of it, through your molars",plural suffix,,Chris Mason
no-,"negation marker prefix, if word begins with consonant",negation prefix,,Chris Mason
nob-,"negation marker prefix, if word begins with vowel",negation prefix,,Chris Mason
-boo,"object marker suffix, if not in OVS order.",object suffix,,
snap-,past,verb prefix,tense,Frédérick Rondeau
krakl-,present,verb prefix,tense,Frédérick Rondeau
pop-,future,verb prefix,tense,Frédérick Rondeau
oyce,squeegee,noun,,Alexa Summers
toyg,mayor,noun,,Alexa Summers
ympt,lamp,noun,,Alexa Summers
budee,friend,noun,,Rachel Wil Sha Singh
flup,language,noun,,Rachel Wil Sha Singh
toop,to poop,verb,,Rachel Wil Sha Singh
jik,to run like half of Philadelphia was chasing your ass,verb,,Ben Speakmon
arbee,to be,verb,,Rachel Wil Sha Singh
ai,to see,verb,,Rachel Wil Sha Singh
wana,"to want, to want to…",verb,,Rachel Wil Sha Singh
tater,question marker,put at beginning of sentence,question marker,Rachel Wil Sha Singh
-mee,"possessor suffix, like ‘s",possessor suffix,,Rachel Wil Sha Singh
upo,"which person/thing, who, what",,,Rachel Wil Sha Singh
dapo,"that person/thing, that",,,Rachel Wil Sha Singh
lapo,"this person/thing, this",,,
apo,"any person/thing, anybody, anything",,,Rachel Wil Sha Singh
alpo,"every person/thing, everybody, everything",,,Rachel Wil Sha Singh
nopo,"no person/thing, nobody, nothing",,,Rachel Wil Sha Singh
ulok,"which place, where",,,Rachel Wil Sha Singh
dalok,"that place, there",,,Rachel Wil Sha Singh
lalok,"this place, here",,,
alok,"any place, anywhere",,,Rachel Wil Sha Singh
alalok,"every place, everywhere",,,Rachel Wil Sha Singh
nolok,"no place, nowhere",,,Rachel Wil Sha Singh
uampam,"which time, when",,,Rachel Wil Sha Singh
dampam,"that time, then",,,Rachel Wil Sha Singh
lampam,"this time, now",,,
amapama,any time,,,Rachel Wil Sha Singh
alamapam,"every time, forever",,,Rachel Wil Sha Singh
nampam,"no time, never",,,Rachel Wil Sha Singh
many,,,,
some,,,,
few,,,,
moo,"zero (0), base 5 counting system",number,,Computer generated
oi,"one (1), base 5 counting system",number,,Computer generated
mi,"two (2), base 5 counting system",number,,Computer generated
lar,"three (3), base 5 counting system",number,,Computer generated
rar,"four (4), base 5 counting system",number,,Computer generated
?,animal,"noun, adjective",,
?,human,"noun, adjective",,
?,plant,"noun, adjective",,
?,"element, general term for something that is inanimate and natural; not a plant or animal.","noun, adjective",,
?,food,noun,,
?,drink,noun,,
?,left,,,
?,right,,,
?,north,,,
?,south,,,
?,east,,,
?,west,,,
?,if,,,
?,then,,,
?,because,,,
la,near,,,Rachel Wil Sha Singh
da,far,,,Rachel Wil Sha Singh
